{
  "houses":[
    {
      "image":"talo1.jpg",
      "address":"Suistokatu 3, 00120 , Helsinki",
      "size":"5h+kt+2kh+s+wc+khh+vh+p",
      "price":"2 904 000 euroa",
      "text":"Granholmin suunnittelema vuonna 1896 valmistunut Kivipalatsi Pyyn korttelissa kuuluu tänäkin päivänä Helsingin kauneimpiin rakennuksiin."
    },
    {
      "image":"talo2.jpg",
      "address":"Telakkakatu 3 A, 00150, Helsinki",
      "size":"4h+k+halli+2xkh+wc+p",
      "price":"1 044 000 euroa",
      "text":"Keittiöstä pariovet avaavat parvekkeen osaksi huonetilaa. Kaksi tilavaa kylpyhuonetta, toisessa amme. Joustavasti muunneltavia huonejakoja, paljon ikkunoita."
    },
    {
      "image":"talo3.jpg",
      "address":"Mikonkatu 3, 00120, Helsinki",
      "size":"2h+kt+2kh+s+khh",
      "price":"1 144 500 euroa",
      "text":"Tämän rauhallisen, täydellisesti saneeratun ja muuttovalmiin huoneiston sisäänkäynti on suojaisan sisäpihan puolella. Huoneiden ikkunat antavat Yrjönkadulle, avokeittiön ja kodinhoitohuoneen ikkunat ovat sisäpihalle."
    },
    {
      "image":"talo4.jpg",
      "address":"Kunnallisneuvoksentie 8 A, 00930 Helsinki",
      "size":"6h+k+takkah+kph+sauna+2kph+wc",
      "price":"1 290 000 euroa",
      "text":"Helsingin keskustan upeimmasta arvoyhtiöstä on nyt tarjolla kaupungin parhaimmat keskustanäkymät. Historiallinen Lackmanin talo on täydellisesti saneerattu uuteen loistoonsa rakennusyhtiö Hartelan johdolla vuonna 2011 kaunista arkkitehtuuria kunnioittaen."
    },
    {
      "image":"talo5.jpg",
      "address":"Katajaharjuntie 18, 00200 Helsinki",
      "size":"9h+k+5kh+khh+3wc+s+ph+tk+et+at",
      "price":"5 300 000 euroa",
      "text":"Huikean kaunis ja laadukas kokonaisuus arvostetulla alueella meren läheisyydessä Marjaniemessä. Tämä moitteettomassa kunnossa oleva ja hyvin suunniteltu talokaunotar on rakennettu vuonna 2000 ja kuntotarkastettu elokuussa 2014."
    }
  ]
}
